{
  "id": "a5ec4a3f-2396-4b30-ac38-415f716d8977",
  "timestamp": "2017-11-21T11:33:08.705Z",
  "lang": "en",
  "result": {
    "source": "agent",
    "resolvedQuery": "What are forecasts for alcohol per reatailer type?",
    "action": "Q3",
    "actionIncomplete": false,
    "parameters": {
      "product": "fruits"
    },
    "contexts": [],
    "metadata": {
      "intentId": "727501da-bf01-475c-9519-88e8a6c9f4bb",
      "webhookUsed": "true",
      "webhookForSlotFillingUsed": "false",
      "webhookResponseTime": 112,
      "intentName": "Q3"
    },
    "fulfillment": {
      "speech": "",
      "messages": [
        {
          "type": 0,
          "speech": ""
        }
      ]
    },
    "score": 1
  },
  "status": {
    "code": 206,
    "errorType": "partial_content",
    "errorDetails": "Webhook call failed. Error: Webhook response was empty.",
    "webhookTimedOut": false
  },
  "sessionId": "0abddf51-59d7-4d53-a104-c0373b701e03"
}
